[
    [
        "[M+Na-H]",
        21.9825
    ],
    [
        "[M+K-H]",
        37.9559
    ],
    [
        "[M+Mg-2H]",
        21.9694
    ],
    [
        "[M+NH3]",
        17.0265
    ],
    [
        "[M+H3PO4]",
        97.9769
    ],
    [
        "[M+H2SO4]",
        97.9674
    ],
    [
        "[M+H2CO3]",
        62.0004
    ],
    [
        "[(Deuterium)]glycerol",
        5.0
    ]
]